GEOG616Project
…
## setting CRS with best guess
st_crs(snoteldata_conus_grp_sf) <- 26768

## transforming ecoregions to use same crs
st_transform(ecoregions_usb_sf, 26768)

Simple feature collection with 277 features and 13 fields
Geometry type: POLYGON
Dimension:     XY
Bounding box:  xmin: -2911610 ymin: -3760536 xmax: 4745145 ymax: 2864111
Projected CRS: NAD27 / Idaho East
# A tibble: 277 × 14
   US_L3CODE US_L3NAME   NA_L3CODE NA_L3NAME   NA_L2CODE NA_L2NAME     NA_L1CODE
 * <chr>     <chr>       <chr>     <chr>       <chr>     <chr>         <chr>    
 1 1         Coast Range 7.1.8     Coast Range 7.1       MARINE WEST … 7        
 2 1         Coast Range 7.1.8     Coast Range 7.1       MARINE WEST … 7        
 3 1         Coast Range 7.1.8     Coast Range 7.1       MARINE WEST … 7        
 4 1         Coast Range 7.1.8     Coast Range 7.1       MARINE WEST … 7        
 5 1         Coast Range 7.1.8     Coast Range 7.1       MARINE WEST … 7        
 6 1         Coast Range 7.1.8     Coast Range 7.1       MARINE WEST … 7        
 7 1         Coast Range 7.1.8     Coast Range 7.1       MARINE WEST … 7        
 8 1         Coast Range 7.1.8     Coast Range 7.1       MARINE WEST … 7        
 9 1         Coast Range 7.1.8     Coast Range 7.1       MARINE WEST … 7        
10 1         Coast Range 7.1.8     Coast Range 7.1       MARINE WEST … 7        
# ℹ 267 more rows
# ℹ 7 more variables: NA_L1NAME <chr>, STATE_NAME <chr>, EPA_REGION <int>,
#   L3_KEY <chr>, L2_KEY <chr>, L1_KEY <chr>,
#   geometry <POLYGON [US_survey_foot]>
…
